<?xml version="1.0" encoding="UTF-8"?>
<svg width="11px" height="20px" viewBox="0 0 11 20" version="1.1" xmlns="http://www.w3.org/2000/svg" xmlns:xlink="http://www.w3.org/1999/xlink">
    <!-- Generator: Sketch 50.2 (55047) - http://www.bohemiancoding.com/sketch -->
    <title>Path</title>
    <desc>Created with Sketch.</desc>
    <defs></defs>
    <g id="Page-1" stroke="none" stroke-width="1" fill="none" fill-rule="evenodd">
        <g id="4_homepage_menu" transform="translate(-927.000000, -514.000000)" fill="#231322">
            <path d="M937.997823,517.477018 L934.856521,517.477018 C934.484267,517.477018 934.070651,517.97185 934.070651,518.629426 L934.070651,520.921047 L938,520.921047 L937.4057,524.189136 L934.070651,524.189136 L934.070651,534 L930.363349,534 L930.363349,524.189136 L927,524.189136 L927,520.921047 L930.363349,520.921047 L930.363349,518.9989 C930.363349,516.241038 932.257273,514 934.856521,514 L937.997823,514 L937.997823,517.477018 Z" id="Path"></path>
        </g>
    </g>
</svg>